(footprint "QSOP-24_3.9x8.7mm_P0.635mm"
	(version 20240108)
	(generator "pcbnew")
	(generator_version "8.0")
	(layer "F.Cu")
	(descr "24-Lead Plastic Shrink Small Outline Narrow Body (QR)-.150\" Body [QSOP] (see Microchip Packaging Specification 00000049CH.pdf)")
	(tags "QSOP 0.635")
	(property "Reference" "REF**"
		(at 0 -5.25 0)
		(layer "F.SilkS")
		(uuid "99023f08-90e1-4ae7-9b39-09f960a3b801")
		(effects
			(font
				(size 1 1)
				(thickness 0.15)
			)
		)
	)
	(property "Value" "QSOP-24_3.9x8.7mm_P0.635mm"
		(at 0 5.3 0)
		(layer "F.Fab")
		(uuid "b868a46c-4141-4669-9a35-7a230be0a36c")
		(effects
			(font
				(size 1 1)
				(thickness 0.15)
			)
		)
	)
	(property "Footprint" ""
		(at 0 0 0)
		(unlocked yes)
		(layer "F.Fab")
		(hide yes)
		(uuid "716a3902-5809-4d52-a1bd-63f0f23869cc")
		(effects
			(font
				(size 1.27 1.27)
			)
		)
	)
	(property "Datasheet" ""
		(at 0 0 0)
		(unlocked yes)
		(layer "F.Fab")
		(hide yes)
		(uuid "0aa50037-04ae-4d3b-b485-d6e9bc22ddaf")
		(effects
			(font
				(size 1.27 1.27)
			)
		)
	)
	(property "Description" ""
		(at 0 0 0)
		(unlocked yes)
		(layer "F.Fab")
		(hide yes)
		(uuid "8d135cf5-11c1-4dd3-9974-10ecc95f93c5")
		(effects
			(font
				(size 1.27 1.27)
			)
		)
	)
	(attr smd)
	(fp_line
		(start -1.8543 -4.475)
		(end 1.8543 -4.475)
		(stroke
			(width 0.12)
			(type solid)
		)
		(layer "F.SilkS")
		(uuid "2a8f0ee8-3620-4003-805e-2a0a0513864c")
	)
	(fp_line
		(start -1.8543 4.475)
		(end 1.8543 4.475)
		(stroke
			(width 0.12)
			(type solid)
		)
		(layer "F.SilkS")
		(uuid "ff38b26e-88b7-4df5-885d-41d6258ed59b")
	)
	(fp_poly
		(pts
			(xy -2.638108 -3.958649) (xy -2.398108 -4.288649) (xy -2.878108 -4.288649) (xy -2.638108 -3.958649)
		)
		(stroke
			(width 0.12)
			(type solid)
		)
		(fill solid)
		(layer "F.SilkS")
		(uuid "6d126a7a-8e9a-4a5a-a475-a4290150c9eb")
	)
	(fp_line
		(start -3.71 -4.6)
		(end -3.71 4.6)
		(stroke
			(width 0.05)
			(type solid)
		)
		(layer "F.CrtYd")
		(uuid "56fc3c31-b6a5-477b-9bfc-992b9799d94d")
	)
	(fp_line
		(start -3.71 -4.6)
		(end 3.7 -4.6)
		(stroke
			(width 0.05)
			(type solid)
		)
		(layer "F.CrtYd")
		(uuid "764d88cd-6d5d-4286-8877-f90642359732")
	)
	(fp_line
		(start -3.71 4.6)
		(end 3.7 4.6)
		(stroke
			(width 0.05)
			(type solid)
		)
		(layer "F.CrtYd")
		(uuid "b30756b6-11aa-4181-b24b-55c6725d6913")
	)
	(fp_line
		(start 3.7 -4.6)
		(end 3.7 4.6)
		(stroke
			(width 0.05)
			(type solid)
		)
		(layer "F.CrtYd")
		(uuid "604c37a6-f78b-426d-a9be-a8caac232ee4")
	)
	(fp_line
		(start -1.95 -3.35)
		(end -0.95 -4.35)
		(stroke
			(width 0.1)
			(type solid)
		)
		(layer "F.Fab")
		(uuid "8b490f20-6913-40d5-a1cf-fc0306b45887")
	)
	(fp_line
		(start -1.95 4.35)
		(end -1.95 -3.35)
		(stroke
			(width 0.1)
			(type solid)
		)
		(layer "F.Fab")
		(uuid "f2707959-41fc-4726-8f6c-667ac9104813")
	)
	(fp_line
		(start -0.95 -4.35)
		(end 1.95 -4.35)
		(stroke
			(width 0.1)
			(type solid)
		)
		(layer "F.Fab")
		(uuid "cb90e356-7f40-4a8d-b53f-0bf624c67478")
	)
	(fp_line
		(start 1.95 -4.35)
		(end 1.95 4.35)
		(stroke
			(width 0.1)
			(type solid)
		)
		(layer "F.Fab")
		(uuid "8efafc01-311f-4ec3-82ae-34d76d35d729")
	)
	(fp_line
		(start 1.95 4.35)
		(end -1.95 4.35)
		(stroke
			(width 0.1)
			(type solid)
		)
		(layer "F.Fab")
		(uuid "cff776b6-a7a0-4e44-90fb-5849b341e7aa")
	)
	(fp_text user "${REFERENCE}"
		(at 0 0 0)
		(layer "F.Fab")
		(uuid "3d807104-563e-4fb4-b366-0ffbcd29bdfb")
		(effects
			(font
				(size 0.8 0.8)
				(thickness 0.08)
			)
		)
	)
	(pad "1" smd rect
		(at -2.6543 -3.4925)
		(size 1.6 0.41)
		(layers "F.Cu" "F.Paste" "F.Mask")
		(uuid "671da9b2-bb8c-4379-acdc-2a70cfe17c09")
	)
	(pad "2" smd rect
		(at -2.6543 -2.8575)
		(size 1.6 0.41)
		(layers "F.Cu" "F.Paste" "F.Mask")
		(uuid "622d1d84-e3e8-48cd-a4bd-a82b3d3ba537")
	)
	(pad "3" smd rect
		(at -2.6543 -2.2225)
		(size 1.6 0.41)
		(layers "F.Cu" "F.Paste" "F.Mask")
		(uuid "a5fb161d-b21a-4970-8694-3e66b0354147")
	)
	(pad "4" smd rect
		(at -2.6543 -1.5875)
		(size 1.6 0.41)
		(layers "F.Cu" "F.Paste" "F.Mask")
		(uuid "598dff0a-3a39-4dd1-91ae-d0add1307d34")
	)
	(pad "5" smd rect
		(at -2.6543 -0.9525)
		(size 1.6 0.41)
		(layers "F.Cu" "F.Paste" "F.Mask")
		(uuid "84ef7036-7c55-4210-98a3-15fe7017e6c1")
	)
	(pad "6" smd rect
		(at -2.6543 -0.3175)
		(size 1.6 0.41)
		(layers "F.Cu" "F.Paste" "F.Mask")
		(uuid "8a06df15-15a8-4a6c-95f0-8501195f564a")
	)
	(pad "7" smd rect
		(at -2.6543 0.3175)
		(size 1.6 0.41)
		(layers "F.Cu" "F.Paste" "F.Mask")
		(uuid "1b8884b1-6a8a-425a-a13a-fa7d8f55ad5e")
	)
	(pad "8" smd rect
		(at -2.6543 0.9525)
		(size 1.6 0.41)
		(layers "F.Cu" "F.Paste" "F.Mask")
		(uuid "622b71db-2c51-4cc7-8607-a8b181476400")
	)
	(pad "9" smd rect
		(at -2.6543 1.5875)
		(size 1.6 0.41)
		(layers "F.Cu" "F.Paste" "F.Mask")
		(uuid "69663fc3-453f-4008-87f0-77e0afb62adb")
	)
	(pad "10" smd rect
		(at -2.6543 2.2225)
		(size 1.6 0.41)
		(layers "F.Cu" "F.Paste" "F.Mask")
		(uuid "8835fc83-7b91-4560-bbb0-39b9bb921165")
	)
	(pad "11" smd rect
		(at -2.6543 2.8575)
		(size 1.6 0.41)
		(layers "F.Cu" "F.Paste" "F.Mask")
		(uuid "3b1eb010-681e-4c74-87c1-2aacca393d32")
	)
	(pad "12" smd rect
		(at -2.6543 3.4925)
		(size 1.6 0.41)
		(layers "F.Cu" "F.Paste" "F.Mask")
		(uuid "3ae35173-a50e-4490-8510-e84813b323b2")
	)
	(pad "13" smd rect
		(at 2.6543 3.4925)
		(size 1.6 0.41)
		(layers "F.Cu" "F.Paste" "F.Mask")
		(uuid "e89ac478-96d3-48fc-8341-9ed726b77fec")
	)
	(pad "14" smd rect
		(at 2.6543 2.8575)
		(size 1.6 0.41)
		(layers "F.Cu" "F.Paste" "F.Mask")
		(uuid "fc1e3f2c-d3d2-4c70-afe7-e5d06c2f0f96")
	)
	(pad "15" smd rect
		(at 2.6543 2.2225)
		(size 1.6 0.41)
		(layers "F.Cu" "F.Paste" "F.Mask")
		(uuid "f913ce92-6e3b-40a8-8db9-aa6d46090c6c")
	)
	(pad "16" smd rect
		(at 2.6543 1.5875)
		(size 1.6 0.41)
		(layers "F.Cu" "F.Paste" "F.Mask")
		(uuid "c6320d90-54a1-4285-a64e-cc6f02117999")
	)
	(pad "17" smd rect
		(at 2.6543 0.9525)
		(size 1.6 0.41)
		(layers "F.Cu" "F.Paste" "F.Mask")
		(uuid "64abecd5-ee1c-4b7d-b2e5-d1abb2b526d0")
	)
	(pad "18" smd rect
		(at 2.6543 0.3175)
		(size 1.6 0.41)
		(layers "F.Cu" "F.Paste" "F.Mask")
		(uuid "b31d2718-3461-44bc-944a-c65d9fb5ffc3")
	)
	(pad "19" smd rect
		(at 2.6543 -0.3175)
		(size 1.6 0.41)
		(layers "F.Cu" "F.Paste" "F.Mask")
		(uuid "6a1f183d-a5ce-47cf-9098-1ab8e68d332c")
	)
	(pad "20" smd rect
		(at 2.6543 -0.9525)
		(size 1.6 0.41)
		(layers "F.Cu" "F.Paste" "F.Mask")
		(uuid "a2eb7c0d-c4b2-4bed-93f2-cd0b2b8608d9")
	)
	(pad "21" smd rect
		(at 2.6543 -1.5875)
		(size 1.6 0.41)
		(layers "F.Cu" "F.Paste" "F.Mask")
		(uuid "3a8d5c89-0ce4-4a42-956c-349a967bab66")
	)
	(pad "22" smd rect
		(at 2.6543 -2.2225)
		(size 1.6 0.41)
		(layers "F.Cu" "F.Paste" "F.Mask")
		(uuid "1e287a8c-5b60-4793-b674-30c3fa0d5051")
	)
	(pad "23" smd rect
		(at 2.6543 -2.8575)
		(size 1.6 0.41)
		(layers "F.Cu" "F.Paste" "F.Mask")
		(uuid "1d77db02-0f22-40c7-b073-e81bf1849e34")
	)
	(pad "24" smd rect
		(at 2.6543 -3.4925)
		(size 1.6 0.41)
		(layers "F.Cu" "F.Paste" "F.Mask")
		(uuid "70239be2-4c0a-4afa-8185-30d3fb1ee55f")
	)
	(model "${KICAD8_3DMODEL_DIR}/Package_SO.3dshapes/QSOP-24_3.9x8.7mm_P0.635mm.wrl"
		(offset
			(xyz 0 0 0)
		)
		(scale
			(xyz 1 1 1)
		)
		(rotate
			(xyz 0 0 0)
		)
	)
)