(footprint "DFN-8-1EP_2x2mm_P0.5mm_EP0.7x1.3mm"
	(version 20240108)
	(generator "pcbnew")
	(generator_version "8.0")
	(layer "F.Cu")
	(descr "DFN, 8 Pin (https://www.onsemi.com/pub/Collateral/NUF4401MN-D.PDF#page=6), generated with kicad-footprint-generator ipc_noLead_generator.py")
	(tags "DFN NoLead")
	(property "Reference" "REF**"
		(at 0 -1.95 0)
		(layer "F.SilkS")
		(uuid "42c6f119-2967-452b-b55f-0c43b3dca6fa")
		(effects
			(font
				(size 1 1)
				(thickness 0.15)
			)
		)
	)
	(property "Value" "DFN-8-1EP_2x2mm_P0.5mm_EP0.7x1.3mm"
		(at 0 1.95 0)
		(layer "F.Fab")
		(uuid "2c50f2b3-f65f-44ec-a287-85b9275366b3")
		(effects
			(font
				(size 1 1)
				(thickness 0.15)
			)
		)
	)
	(property "Footprint" ""
		(at 0 0 0)
		(unlocked yes)
		(layer "F.Fab")
		(hide yes)
		(uuid "f9506131-a388-42fb-ad02-b9ebc792d21e")
		(effects
			(font
				(size 1.27 1.27)
			)
		)
	)
	(property "Datasheet" ""
		(at 0 0 0)
		(unlocked yes)
		(layer "F.Fab")
		(hide yes)
		(uuid "f631ef4d-ee12-4c09-8f2d-49f2c802e6e1")
		(effects
			(font
				(size 1.27 1.27)
			)
		)
	)
	(property "Description" ""
		(at 0 0 0)
		(unlocked yes)
		(layer "F.Fab")
		(hide yes)
		(uuid "90cc5eda-b846-4b0e-80a2-a7ad3f91c7ee")
		(effects
			(font
				(size 1.27 1.27)
			)
		)
	)
	(attr smd)
	(fp_line
		(start -1 -1.135)
		(end 1 -1.135)
		(stroke
			(width 0.12)
			(type solid)
		)
		(layer "F.SilkS")
		(uuid "132fdd11-b9f0-4aa8-b40f-48c98637eaa6")
	)
	(fp_line
		(start -1 1.135)
		(end 1 1.135)
		(stroke
			(width 0.12)
			(type solid)
		)
		(layer "F.SilkS")
		(uuid "f9cc238c-3d12-4159-9823-bf011c0194c7")
	)
	(fp_poly
		(pts
			(xy -1.52 -1.05) (xy -1.8 -1.05) (xy -1.52 -1.33) (xy -1.52 -1.05)
		)
		(stroke
			(width 0.12)
			(type solid)
		)
		(fill solid)
		(layer "F.SilkS")
		(uuid "20654358-6f1e-4e51-a98b-8238c9d497da")
	)
	(fp_line
		(start -1.6 -1.25)
		(end -1.6 1.25)
		(stroke
			(width 0.05)
			(type solid)
		)
		(layer "F.CrtYd")
		(uuid "7ac8a0cc-fbe6-4447-be60-e5416b22bc25")
	)
	(fp_line
		(start -1.6 1.25)
		(end 1.6 1.25)
		(stroke
			(width 0.05)
			(type solid)
		)
		(layer "F.CrtYd")
		(uuid "567ec2af-5a03-40fb-9a35-231ec6336e76")
	)
	(fp_line
		(start 1.6 -1.25)
		(end -1.6 -1.25)
		(stroke
			(width 0.05)
			(type solid)
		)
		(layer "F.CrtYd")
		(uuid "dbe0b213-a21f-4a1d-84ad-7ad2327a7ef4")
	)
	(fp_line
		(start 1.6 1.25)
		(end 1.6 -1.25)
		(stroke
			(width 0.05)
			(type solid)
		)
		(layer "F.CrtYd")
		(uuid "dd6226c9-cdf5-4d63-89ad-9a0aafabef84")
	)
	(fp_line
		(start -1 -0.5)
		(end -0.5 -1)
		(stroke
			(width 0.1)
			(type solid)
		)
		(layer "F.Fab")
		(uuid "deedfe4e-3dfc-4d43-b504-07293efcfc09")
	)
	(fp_line
		(start -1 1)
		(end -1 -0.5)
		(stroke
			(width 0.1)
			(type solid)
		)
		(layer "F.Fab")
		(uuid "b654408c-416e-4ded-a177-bd7a8e375fca")
	)
	(fp_line
		(start -0.5 -1)
		(end 1 -1)
		(stroke
			(width 0.1)
			(type solid)
		)
		(layer "F.Fab")
		(uuid "9e900d24-0530-47d6-9fec-66474d00bbc0")
	)
	(fp_line
		(start 1 -1)
		(end 1 1)
		(stroke
			(width 0.1)
			(type solid)
		)
		(layer "F.Fab")
		(uuid "df85965e-afcb-441b-930a-f17c71432b72")
	)
	(fp_line
		(start 1 1)
		(end -1 1)
		(stroke
			(width 0.1)
			(type solid)
		)
		(layer "F.Fab")
		(uuid "fe310ea8-5908-4702-9785-9c812aee4be4")
	)
	(fp_text user "${REFERENCE}"
		(at 0 0 0)
		(layer "F.Fab")
		(uuid "8da47689-be97-46b3-8c7e-6134c050e33e")
		(effects
			(font
				(size 0.5 0.5)
				(thickness 0.08)
			)
		)
	)
	(pad "" smd roundrect
		(at -0.175 -0.325)
		(size 0.28 0.52)
		(layers "F.Paste")
		(roundrect_rratio 0.25)
		(uuid "29402b9a-3b8f-4044-9fa6-e5347df74018")
	)
	(pad "" smd roundrect
		(at -0.175 0.325)
		(size 0.28 0.52)
		(layers "F.Paste")
		(roundrect_rratio 0.25)
		(uuid "bff8c491-8ba5-40e4-b066-4e177d7364c8")
	)
	(pad "" smd roundrect
		(at 0.175 -0.325)
		(size 0.28 0.52)
		(layers "F.Paste")
		(roundrect_rratio 0.25)
		(uuid "c737a935-9a09-47b8-9923-991f95bbc814")
	)
	(pad "" smd roundrect
		(at 0.175 0.325)
		(size 0.28 0.52)
		(layers "F.Paste")
		(roundrect_rratio 0.25)
		(uuid "3ab01b70-e627-4b28-8713-1eed9e261765")
	)
	(pad "1" smd roundrect
		(at -0.9625 -0.75)
		(size 0.775 0.25)
		(layers "F.Cu" "F.Paste" "F.Mask")
		(roundrect_rratio 0.25)
		(uuid "331b01e4-c95d-496a-840f-eeec5829594f")
	)
	(pad "2" smd roundrect
		(at -0.9625 -0.25)
		(size 0.775 0.25)
		(layers "F.Cu" "F.Paste" "F.Mask")
		(roundrect_rratio 0.25)
		(uuid "9eeb4972-893b-4cd0-b779-6fc41179fbaf")
	)
	(pad "3" smd roundrect
		(at -0.9625 0.25)
		(size 0.775 0.25)
		(layers "F.Cu" "F.Paste" "F.Mask")
		(roundrect_rratio 0.25)
		(uuid "f5670e7e-7964-49c5-97a8-f2ba84f4c556")
	)
	(pad "4" smd roundrect
		(at -0.9625 0.75)
		(size 0.775 0.25)
		(layers "F.Cu" "F.Paste" "F.Mask")
		(roundrect_rratio 0.25)
		(uuid "47b8fd99-0cf8-4a29-ab9e-6b8fba839a85")
	)
	(pad "5" smd roundrect
		(at 0.9625 0.75)
		(size 0.775 0.25)
		(layers "F.Cu" "F.Paste" "F.Mask")
		(roundrect_rratio 0.25)
		(uuid "6f22d1db-117d-4549-ab53-f9e478d353a8")
	)
	(pad "6" smd roundrect
		(at 0.9625 0.25)
		(size 0.775 0.25)
		(layers "F.Cu" "F.Paste" "F.Mask")
		(roundrect_rratio 0.25)
		(uuid "ead87e44-681b-43b9-82a3-99f5b1185203")
	)
	(pad "7" smd roundrect
		(at 0.9625 -0.25)
		(size 0.775 0.25)
		(layers "F.Cu" "F.Paste" "F.Mask")
		(roundrect_rratio 0.25)
		(uuid "d0b53ba1-f280-42b0-a367-ed2c2162c738")
	)
	(pad "8" smd roundrect
		(at 0.9625 -0.75)
		(size 0.775 0.25)
		(layers "F.Cu" "F.Paste" "F.Mask")
		(roundrect_rratio 0.25)
		(uuid "2975a8a6-d35f-4d6a-8292-417f80301a4f")
	)
	(pad "9" smd rect
		(at 0 0)
		(size 0.7 1.3)
		(property pad_prop_heatsink)
		(layers "F.Cu" "F.Mask")
		(zone_connect 2)
		(uuid "03819ca7-49da-40cc-9bea-bfd04543dae6")
	)
	(model "${KICAD8_3DMODEL_DIR}/Package_DFN_QFN.3dshapes/DFN-8-1EP_2x2mm_P0.5mm_EP0.7x1.3mm.wrl"
		(offset
			(xyz 0 0 0)
		)
		(scale
			(xyz 1 1 1)
		)
		(rotate
			(xyz 0 0 0)
		)
	)
)