(footprint "Texas_VSON-HR-8_1.5x2mm_P0.5mm"
	(version 20240108)
	(generator "pcbnew")
	(generator_version "8.0")
	(layer "F.Cu")
	(descr "Texas  VSON-HR, 8 Pin (http://www.ti.com/lit/ds/symlink/tps62823.pdf#page=29), generated with kicad-footprint-generator ipc_noLead_generator.py")
	(tags "Texas VSON-HR NoLead")
	(property "Reference" "REF**"
		(at 0 -1.95 0)
		(layer "F.SilkS")
		(uuid "a4bd4bdc-652a-4b44-a0c1-419fc7980ebf")
		(effects
			(font
				(size 1 1)
				(thickness 0.15)
			)
		)
	)
	(property "Value" "Texas_VSON-HR-8_1.5x2mm_P0.5mm"
		(at 0 1.95 0)
		(layer "F.Fab")
		(uuid "d7a2d5cf-e39f-41f9-8d4b-37ca6ba08158")
		(effects
			(font
				(size 1 1)
				(thickness 0.15)
			)
		)
	)
	(property "Footprint" ""
		(at 0 0 0)
		(unlocked yes)
		(layer "F.Fab")
		(hide yes)
		(uuid "f716a71f-0b66-4550-b351-0eef94cf5c1d")
		(effects
			(font
				(size 1.27 1.27)
			)
		)
	)
	(property "Datasheet" ""
		(at 0 0 0)
		(unlocked yes)
		(layer "F.Fab")
		(hide yes)
		(uuid "6d6a94fc-0112-48e2-a63c-169a3e11414d")
		(effects
			(font
				(size 1.27 1.27)
			)
		)
	)
	(property "Description" ""
		(at 0 0 0)
		(unlocked yes)
		(layer "F.Fab")
		(hide yes)
		(uuid "9213ac7e-c2e8-4fa0-bd63-48103bd981b7")
		(effects
			(font
				(size 1.27 1.27)
			)
		)
	)
	(attr smd)
	(fp_line
		(start -0.75 -1.135)
		(end 0.75 -1.135)
		(stroke
			(width 0.12)
			(type solid)
		)
		(layer "F.SilkS")
		(uuid "c2d5162c-72f2-43c1-b0d9-68d3e92a7180")
	)
	(fp_line
		(start -0.75 1.135)
		(end 0.75 1.135)
		(stroke
			(width 0.12)
			(type solid)
		)
		(layer "F.SilkS")
		(uuid "fe4a8868-e9e1-4882-9d12-cb1d9efe1e06")
	)
	(fp_poly
		(pts
			(xy -1.3 -1.05) (xy -1.58 -1.05) (xy -1.3 -1.33) (xy -1.3 -1.05)
		)
		(stroke
			(width 0.12)
			(type solid)
		)
		(fill solid)
		(layer "F.SilkS")
		(uuid "7ca3535c-cfc6-4439-b5e4-ad0083e4822d")
	)
	(fp_line
		(start -1.38 -1.25)
		(end -1.38 1.25)
		(stroke
			(width 0.05)
			(type solid)
		)
		(layer "F.CrtYd")
		(uuid "e866efdc-16e0-4802-a386-dc7fd77b2e02")
	)
	(fp_line
		(start -1.38 1.25)
		(end 1.38 1.25)
		(stroke
			(width 0.05)
			(type solid)
		)
		(layer "F.CrtYd")
		(uuid "37df7a3a-4cbd-4785-898c-493fe89e3b67")
	)
	(fp_line
		(start 1.38 -1.25)
		(end -1.38 -1.25)
		(stroke
			(width 0.05)
			(type solid)
		)
		(layer "F.CrtYd")
		(uuid "c6a9927d-e162-44f3-a3e5-7e686cf5a391")
	)
	(fp_line
		(start 1.38 1.25)
		(end 1.38 -1.25)
		(stroke
			(width 0.05)
			(type solid)
		)
		(layer "F.CrtYd")
		(uuid "52d1e496-47ed-43af-b739-ead07262b523")
	)
	(fp_line
		(start -0.75 -0.625)
		(end -0.375 -1)
		(stroke
			(width 0.1)
			(type solid)
		)
		(layer "F.Fab")
		(uuid "b62ee441-003d-4aa5-92fe-d4e4e715491e")
	)
	(fp_line
		(start -0.75 1)
		(end -0.75 -0.625)
		(stroke
			(width 0.1)
			(type solid)
		)
		(layer "F.Fab")
		(uuid "672c2806-c131-4df3-90b9-5abc35cc4de2")
	)
	(fp_line
		(start -0.375 -1)
		(end 0.75 -1)
		(stroke
			(width 0.1)
			(type solid)
		)
		(layer "F.Fab")
		(uuid "8da3f4ad-85a0-445e-bc50-bd6ae10881b0")
	)
	(fp_line
		(start 0.75 -1)
		(end 0.75 1)
		(stroke
			(width 0.1)
			(type solid)
		)
		(layer "F.Fab")
		(uuid "8945d17d-c3c5-46a7-b3ea-69b33c6f48ca")
	)
	(fp_line
		(start 0.75 1)
		(end -0.75 1)
		(stroke
			(width 0.1)
			(type solid)
		)
		(layer "F.Fab")
		(uuid "933c8586-2766-46e8-b572-e41f06c3aeda")
	)
	(fp_text user "${REFERENCE}"
		(at 0 0 90)
		(layer "F.Fab")
		(uuid "7b37a782-08df-4cd7-a431-66f4b90f425d")
		(effects
			(font
				(size 0.5 0.5)
				(thickness 0.08)
			)
		)
	)
	(pad "1" smd roundrect
		(at -0.725 -0.75)
		(size 0.8 0.25)
		(layers "F.Cu" "F.Paste" "F.Mask")
		(roundrect_rratio 0.25)
		(uuid "4d47fb9d-2192-4117-a3b1-6245efbea7b2")
	)
	(pad "2" smd roundrect
		(at -0.725 -0.25)
		(size 0.8 0.25)
		(layers "F.Cu" "F.Paste" "F.Mask")
		(roundrect_rratio 0.25)
		(uuid "948f0d9e-26d9-4eb6-9f55-dd0e7a64a623")
	)
	(pad "3" smd roundrect
		(at -0.725 0.25)
		(size 0.8 0.25)
		(layers "F.Cu" "F.Paste" "F.Mask")
		(roundrect_rratio 0.25)
		(uuid "7736b850-4f3c-443b-ac80-f67da589a37e")
	)
	(pad "4" smd roundrect
		(at -0.725 0.75)
		(size 0.8 0.25)
		(layers "F.Cu" "F.Paste" "F.Mask")
		(roundrect_rratio 0.25)
		(uuid "7d8bec1b-36bf-469d-974e-65bdfd4f435a")
	)
	(pad "5" smd roundrect
		(at 0.725 0.75)
		(size 0.8 0.25)
		(layers "F.Cu" "F.Paste" "F.Mask")
		(roundrect_rratio 0.25)
		(uuid "0d243c5f-f442-4d2b-9f94-22a7b5a57d09")
	)
	(pad "6" smd roundrect
		(at 0.725 0.25)
		(size 0.8 0.25)
		(layers "F.Cu" "F.Paste" "F.Mask")
		(roundrect_rratio 0.25)
		(uuid "f09d48a6-57c6-45f7-9696-f7bcb542e6af")
	)
	(pad "7" smd roundrect
		(at 0.725 -0.25)
		(size 0.8 0.25)
		(layers "F.Cu" "F.Paste" "F.Mask")
		(roundrect_rratio 0.25)
		(uuid "b95a4a37-f62d-4724-8576-ec61ea7f4801")
	)
	(pad "8" smd roundrect
		(at 0.725 -0.75)
		(size 0.8 0.25)
		(layers "F.Cu" "F.Paste" "F.Mask")
		(roundrect_rratio 0.25)
		(uuid "6837e01b-14c2-4072-b83e-7ac0511be2dc")
	)
	(model "${KICAD8_3DMODEL_DIR}/Package_DFN_QFN.3dshapes/Texas_VSON-HR-8_1.5x2mm_P0.5mm.wrl"
		(offset
			(xyz 0 0 0)
		)
		(scale
			(xyz 1 1 1)
		)
		(rotate
			(xyz 0 0 0)
		)
	)
)